\relax 
\providecommand\hyper@newdestlabel[2]{}
\providecommand\BKM@entry[2]{}
\providecommand*{\memsetcounter}[2]{}
\providecommand\HyperFirstAtBeginDocument{\AtBeginDocument}
\HyperFirstAtBeginDocument{\ifx\hyper@anchor\@undefined
\global\let\oldcontentsline\contentsline
\gdef\contentsline#1#2#3#4{\oldcontentsline{#1}{#2}{#3}}
\global\let\oldnewlabel\newlabel
\gdef\newlabel#1#2{\newlabelxx{#1}#2}
\gdef\newlabelxx#1#2#3#4#5#6{\oldnewlabel{#1}{{#2}{#3}}}
\AtEndDocument{\ifx\hyper@anchor\@undefined
\let\contentsline\oldcontentsline
\let\newlabel\oldnewlabel
\fi}
\fi}
\global\let\hyper@last\relax 
\gdef\HyperFirstAtBeginDocument#1{#1}
\providecommand\HyField@AuxAddToFields[1]{}
\providecommand\HyField@AuxAddToCoFields[2]{}
\catcode `:\active 
\catcode `;\active 
\catcode `!\active 
\catcode `?\active 
\catcode `"\active 
\catcode `<\active 
\catcode `>\active 
\@nameuse{es@quoting}
\citation{abnt-url-package=url}
\@writefile{toc}{\changetocdepth  {4}}
\select@language{brazil}
\@writefile{toc}{\select@language{brazil}}
\@writefile{lof}{\select@language{brazil}}
\@writefile{lot}{\select@language{brazil}}
\select@language{brazil}
\@writefile{toc}{\select@language{brazil}}
\@writefile{lof}{\select@language{brazil}}
\@writefile{lot}{\select@language{brazil}}
\BKM@entry{id=1,dest={6368617074657262312E30},srcline={195}}{466F6C686120646520726F73746F}
\BKM@entry{id=2,dest={746F632E30},srcline={199}}{53756D5C33343172696F}
\@writefile{toc}{\setlength  {\cftchapterindent }{\cftlastnumwidth } \setlength  {\cftchapternumwidth }{2em}}
\BKM@entry{id=3,dest={73656374696F6E2E302E31},srcline={203}}{4465736372695C3334375C3334336F2064617320705C33343167696E6173206461205C33303172766F726520422A}
\BKM@entry{id=4,dest={73656374696F6E2E302E32},srcline={227}}{56697375616C697A615C3334375C3334336F2067726166696361206461205C33303172766F726520422A}
\BKM@entry{id=5,dest={73656374696F6E2E302E33},srcline={246}}{436F6D70696C615C3334375C3334336F2065207574696C697A615C3334375C3334336F20646F2070726F6772616D61}
\@writefile{toc}{\contentsline {section}{\numberline {1}Descri\IeC {\c c}\IeC {\~a}o das p\IeC {\'a}ginas da \IeC {\'A}rvore B*}{3}{section.0.1}}
\@writefile{toc}{\contentsline {section}{\numberline {2}Visualiza\IeC {\c c}\IeC {\~a}o grafica da \IeC {\'A}rvore B*}{3}{section.0.2}}
\BKM@entry{id=6,dest={73756273656374696F6E2E302E332E31},srcline={248}}{496E737472755C3334375C3336356573207061726120636F6D70696C615C3334375C3334336F207574696C697A616E646F206F204D616B6566696C65}
\BKM@entry{id=7,dest={73756273656374696F6E2E302E332E32},srcline={253}}{496E737472755C3334375C333635657320706172612065786563755C3334375C3334336F}
\BKM@entry{id=8,dest={73656374696F6E2E302E34},srcline={256}}{435C3336337069612064652074656C6120646120696E74657266616365}
\BKM@entry{id=9,dest={73656374696F6E2E302E35},srcline={266}}{4261746572696120646520746573746573}
\bibstyle{abntex2-alf}
\@writefile{lof}{\contentsline {figure}{\numberline {1}{\ignorespaces Exemplo de chaves aninhadas}}{4}{figure.0.1}}
\newlabel{fig_grafico}{{\M@TitleReference {1}{Visualiza\IeC {\c c}\IeC {\~a}o grafica da \IeC {\'A}rvore B*}}{4}{Exemplo de chaves aninhadas}{figure.0.1}{}}
\@writefile{lof}{\contentsline {figure}{\numberline {2}{\ignorespaces Codigo usado para gerar a figura 1}}{4}{figure.0.2}}
\newlabel{fig_grafico}{{\M@TitleReference {2}{Visualiza\IeC {\c c}\IeC {\~a}o grafica da \IeC {\'A}rvore B*}}{4}{Codigo usado para gerar a figura 1}{figure.0.2}{}}
\@writefile{toc}{\contentsline {section}{\numberline {3}Compila\IeC {\c c}\IeC {\~a}o e utiliza\IeC {\c c}\IeC {\~a}o do programa}{4}{section.0.3}}
\@writefile{toc}{\contentsline {subsection}{\numberline {3.1}Instru\IeC {\c c}\IeC {\~o}es para compila\IeC {\c c}\IeC {\~a}o utilizando o Makefile}{4}{subsection.0.3.1}}
\@writefile{toc}{\contentsline {subsection}{\numberline {3.2}Instru\IeC {\c c}\IeC {\~o}es para execu\IeC {\c c}\IeC {\~a}o}{4}{subsection.0.3.2}}
\@writefile{toc}{\contentsline {section}{\numberline {4}C\IeC {\'o}pia de tela da interface}{4}{section.0.4}}
\@writefile{toc}{\contentsline {section}{\numberline {5}Bateria de testes}{4}{section.0.5}}
\@writefile{lof}{\contentsline {figure}{\numberline {3}{\ignorespaces Imagem mostrando a interface do programa}}{5}{figure.0.3}}
\newlabel{fig_grafico}{{\M@TitleReference {3}{C\IeC {\'o}pia de tela da interface}}{5}{Imagem mostrando a interface do programa}{figure.0.3}{}}
\memsetcounter{lastsheet}{7}
\memsetcounter{lastpage}{5}
